Lab5/Lab5 Project/simulation/qsim/CO.msim.vcd
$comment
	File created using the following command:
		vcd file CO.msim.vcd -direction
$end
$date
	Wed Feb 21 14:25:43 2018
$end
$version
	ModelSim Version 10.5b
$end
$timescale
	1ps
$end

$scope module CO_vlg_vec_tst $end
$var reg 1 ! Cin $end
$var reg 1 " SEL $end
$var reg 1 # SEL1 $end
$var reg 1 $ SEL2 $end
$var reg 4 % X [3:0] $end
$var reg 4 & Y [3:0] $end
$var wire 1 ' Cout $end
$var wire 1 ( out [3] $end
$var wire 1 ) out [2] $end
$var wire 1 * out [1] $end
$var wire 1 + out [0] $end
$var wire 1 , OVF $end

$scope module i1 $end
$var wire 1 - gnd $end
$var wire 1 . vcc $end
$var wire 1 / unknown $end
$var tri1 1 0 devclrn $end
$var tri1 1 1 devpor $end
$var tri1 1 2 devoe $end
$var wire 1 3 ~QUARTUS_CREATED_GND~I_combout $end
$var wire 1 4 SEL~input_o $end
$var wire 1 5 X[3]~input_o $end
$var wire 1 6 Y[3]~input_o $end
$var wire 1 7 X[2]~input_o $end
$var wire 1 8 Y[2]~input_o $end
$var wire 1 9 Y[1]~input_o $end
$var wire 1 : X[1]~input_o $end
$var wire 1 ; Y[0]~input_o $end
$var wire 1 < X[0]~input_o $end
$var wire 1 = Cin~input_o $end
$var wire 1 > insta|auto_generated|add_sub_cella[0]~2_cout $end
$var wire 1 ? insta|auto_generated|add_sub_cella[0]~COUT $end
$var wire 1 @ insta|auto_generated|add_sub_cella[1]~COUT $end
$var wire 1 A insta|auto_generated|add_sub_cella[2]~COUT $end
$var wire 1 B insta|auto_generated|cout $end
$var wire 1 C insta|auto_generated|cout~1_sumout $end
$var wire 1 D SEL2~input_o $end
$var wire 1 E SEL1~input_o $end
$var wire 1 F inst|auto_generated|l1_w3_n0_mux_dataout~0_combout $end
$var wire 1 G inst|auto_generated|l1_w2_n0_mux_dataout~0_combout $end
$var wire 1 H inst|auto_generated|l1_w1_n0_mux_dataout~0_combout $end
$var wire 1 I inst|auto_generated|l1_w0_n0_mux_dataout~0_combout $end
$var wire 1 J insta|auto_generated|result [3] $end
$var wire 1 K insta|auto_generated|result [2] $end
$var wire 1 L insta|auto_generated|result [1] $end
$var wire 1 M insta|auto_generated|result [0] $end
$var wire 1 N insta|auto_generated|overflow_wire [0] $end
$upscope $end
$upscope $end
$enddefinitions $end
#0
$dumpvars
0!
0"
0#
0$
b0 %
b0 &
0'
1+
1*
1)
1(
1,
0-
1.
x/
10
11
12
03
04
05
06
07
08
09
0:
0;
0<
0=
0>
0?
0@
0A
0B
0C
0D
0E
1F
1G
1H
1I
1M
1L
1K
1J
0N
$end
#156250
b1000 %
b1100 %
b1110 %
b1111 %
1<
1:
17
15
1B
0J
1A
0K
1@
0L
1?
0M
1J
1K
1L
1C
0I
0H
0G
0F
0(
0)
0*
0+
1'
1N
1H
1G
1F
1(
1)
1*
0,
#312500
b1000 &
b1100 &
b1110 &
b1111 &
b111 %
b11 %
b1 %
b0 %
0<
0:
07
05
1;
19
18
16
0B
0A
0@
0?
0J
0K
0L
0C
0'
0N
0H
0G
0F
0(
0)
0*
1,
#468750
b1000 %
b1100 %
b1110 %
b1111 %
1<
1:
17
15
1J
1K
1L
1M
1I
1H
1G
1F
1(
1)
1*
1+
#625000
1!
b111 &
b11 &
b1 &
b0 &
b111 %
b11 %
b1 %
b0 %
1=
0<
0:
07
05
0;
09
08
06
1>
1?
0M
1@
0L
0I
0+
1A
0K
0H
0*
1B
0J
0G
0)
1C
0F
0(
1'
1N
0,
#781250
b1000 %
b1100 %
b1110 %
b1111 %
1<
1:
17
15
1J
1K
1L
1M
1I
1H
1G
1F
1(
1)
1*
1+
#937500
b1000 &
b1100 &
b1110 &
b1111 &
b111 %
b11 %
b1 %
b0 %
0<
0:
07
05
1;
19
18
16
0B
0A
0@
0?
0J
0K
0L
0C
0'
0N
0H
0G
0F
0(
0)
0*
1,
#1093750
b1000 %
b1100 %
b1110 %
b1111 %
1<
1:
17
15
1J
1K
1L
1?
0M
1@
0L
0I
1H
1G
1F
1(
1)
1*
0+
1A
0K
0H
0*
1B
0J
0G
0)
1C
0F
0(
1'
1N
0,
#1250000
1"
0!
b111 &
b11 &
b1 &
b0 &
b111 %
b11 %
b1 %
b0 %
14
0=
0<
0:
07
05
0;
09
08
06
0B
1J
0A
1K
0@
1L
0?
1M
0>
0N
1,
0J
0K
0L
0M
0C
1I
1H
1G
1F
1(
1)
1*
1+
0'
1N
0I
0H
0G
0F
0(
0)
0*
0+
0,
#1406250
b1000 %
b1100 %
b1110 %
b1111 %
1<
1:
17
15
1J
1K
1L
1M
1I
1H
1G
1F
1(
1)
1*
1+
#1562500
b1000 &
b1100 &
b1110 &
b1111 &
b111 %
b11 %
b1 %
b0 %
0<
0:
07
05
1;
19
18
16
#1718750
b1000 %
b1100 %
b1110 %
b1111 %
1<
1:
17
15
1B
0J
1A
0K
1@
0L
1?
0M
1J
1K
1L
1C
0I
0H
0G
0F
0(
0)
0*
0+
1'
0N
1H
1G
1F
1(
1)
1*
1,
#1875000
1!
b111 &
b11 &
b1 &
b0 &
b111 %
b11 %
b1 %
b0 %
1=
0<
0:
07
05
0;
09
08
06
0B
0A
0@
0?
1>
0J
0K
0L
1M
0C
0'
1N
1I
0H
0G
0F
0(
0)
0*
1+
0,
#2031250
b1000 %
b1100 %
b1110 %
b1111 %
1<
1:
17
15
1J
1K
1L
1?
0M
1@
0L
0I
1H
1G
1F
1(
1)
1*
0+
1A
0K
0H
0*
1B
0J
0G
0)
1C
0F
0(
1'
0N
1,
#2187500
b1000 &
b1100 &
b1110 &
b1111 &
b111 %
b11 %
b1 %
b0 %
0<
0:
07
05
1;
19
18
16
#2343750
b1000 %
b1100 %
b1110 %
b1111 %
1<
1:
17
15
1J
1K
1L
1M
1I
1H
1G
1F
1(
1)
1*
1+
#2500000
1#
0"
0!
b111 &
b11 &
b1 &
b0 &
b111 %
b11 %
b1 %
b0 %
1E
04
0=
0<
0:
07
05
0;
09
08
06
0J
0K
0L
0M
0>
1N
0,
0?
1M
0I
0H
0G
0F
0(
0)
0*
0+
0@
1L
1I
1+
0A
1K
1H
1*
0B
1J
1G
1)
0C
1F
1(
0'
0N
1,
#2656250
b1000 %
b1100 %
b1110 %
b1111 %
1<
1:
17
15
1B
0J
1A
0K
1@
0L
1?
0M
1J
1K
1L
1C
0I
0H
0G
0F
0(
0)
0*
0+
1'
1N
1H
1G
1F
1(
1)
1*
0,
#2812500
b1000 &
b1100 &
b1110 &
b1111 &
b111 %
b11 %
b1 %
b0 %
0<
0:
07
05
1;
19
18
16
0B
0A
0@
0?
0J
0K
0L
0C
0'
0N
0H
0G
0F
0(
0)
0*
1,
#2968750
b1000 %
b1100 %
b1110 %
b1111 %
1<
1:
17
15
1J
1K
1L
1M
1I
1H
1G
1F
1(
1)
1*
1+
#3125000
1!
b111 &
b11 &
b1 &
b0 &
b111 %
b11 %
b1 %
b0 %
1=
0<
0:
07
05
0;
09
08
06
1>
1?
0M
1@
0L
0I
0+
1A
0K
0H
0*
1B
0J
0G
0)
1C
0F
0(
1'
1N
0,
#3281250
b1000 %
b1100 %
b1110 %
b1111 %
1<
1:
17
15
1J
1K
1L
1M
1I
1H
1G
1F
1(
1)
1*
1+
#3437500
b1000 &
b1100 &
b1110 &
b1111 &
b111 %
b11 %
b1 %
b0 %
0<
0:
07
05
1;
19
18
16
0B
0A
0@
0?
0J
0K
0L
0C
0'
0N
0H
0G
0F
0(
0)
0*
1,
#3593750
b1000 %
b1100 %
b1110 %
b1111 %
1<
1:
17
15
1J
1K
1L
1?
0M
1@
0L
0I
1H
1G
1F
1(
1)
1*
0+
1A
0K
0H
0*
1B
0J
0G
0)
1C
0F
0(
1'
1N
0,
#3750000
1"
0!
b111 &
b11 &
b1 &
b0 &
b111 %
b11 %
b1 %
b0 %
14
0=
0<
0:
07
05
0;
09
08
06
0B
1J
0A
1K
0@
1L
0?
1M
0>
0N
1,
0J
0K
0L
0M
0C
1I
1H
1G
1F
1(
1)
1*
1+
0'
1N
0I
0H
0G
0F
0(
0)
0*
0+
0,
#3906250
b1000 %
b1100 %
b1110 %
b1111 %
1<
1:
17
15
1J
1K
1L
1M
1I
1H
1G
1F
1(
1)
1*
1+
#4062500
b1000 &
b1100 &
b1110 &
b1111 &
b111 %
b11 %
b1 %
b0 %
0<
0:
07
05
1;
19
18
16
#4218750
b1000 %
b1100 %
b1110 %
b1111 %
1<
1:
17
15
1B
0J
1A
0K
1@
0L
1?
0M
1J
1K
1L
1C
0I
0H
0G
0F
0(
0)
0*
0+
1'
0N
1H
1G
1F
1(
1)
1*
1,
#4375000
1!
b111 &
b11 &
b1 &
b0 &
b111 %
b11 %
b1 %
b0 %
1=
0<
0:
07
05
0;
09
08
06
0B
0A
0@
0?
1>
0J
0K
0L
1M
0C
0'
1N
1I
0H
0G
0F
0(
0)
0*
1+
0,
#4531250
b1000 %
b1100 %
b1110 %
b1111 %
1<
1:
17
15
1J
1K
1L
1?
0M
1@
0L
0I
1H
1G
1F
1(
1)
1*
0+
1A
0K
0H
0*
1B
0J
0G
0)
1C
0F
0(
1'
0N
1,
#4687500
b1000 &
b1100 &
b1110 &
b1111 &
b111 %
b11 %
b1 %
b0 %
0<
0:
07
05
1;
19
18
16
#4843750
b1000 %
b1100 %
b1110 %
b1111 %
1<
1:
17
15
1J
1K
1L
1M
1I
1H
1G
1F
1(
1)
1*
1+
#5000000
1$
0#
0"
0!
b111 &
b11 &
b1 &
b0 &
b111 %
b11 %
b1 %
b0 %
1D
0E
04
0=
0<
0:
07
05
0;
09
08
06
0J
0K
0L
0M
0>
1N
0F
0G
0H
0I
0+
0*
0)
0(
0,
0?
1M
0@
1L
0A
1K
0B
1J
0C
0'
0N
1,
#5156250
b1000 %
b1100 %
b1110 %
b1111 %
1<
1:
17
15
1B
0J
1A
0K
1@
0L
1?
0M
1J
1K
1L
1C
1'
1N
0,
#5312500
b1000 &
b1100 &
b1110 &
b1111 &
b111 %
b11 %
b1 %
b0 %
0<
0:
07
05
1;
19
18
16
0B
0A
0@
0?
0J
0K
0L
0C
0'
0N
1,
#5468750
b1000 %
b1100 %
b1110 %
b1111 %
1<
1:
17
15
1J
1K
1L
1M
1F
1G
1H
1I
1+
1*
1)
1(
#5625000
1!
b111 &
b11 &
b1 &
b0 &
b111 %
b11 %
b1 %
b0 %
1=
0<
0:
07
05
0;
09
08
06
1>
0F
0G
0H
0I
0+
0*
0)
0(
1?
0M
1@
0L
1A
0K
1B
0J
1C
1'
1N
0,
#5781250
b1000 %
b1100 %
b1110 %
b1111 %
1<
1:
17
15
1J
1K
1L
1M
#5937500
b1000 &
b1100 &
b1110 &
b1111 &
b111 %
b11 %
b1 %
b0 %
0<
0:
07
05
1;
19
18
16
0B
0A
0@
0?
0J
0K
0L
0C
0'
0N
1,
#6093750
b1000 %
b1100 %
b1110 %
b1111 %
1<
1:
17
15
1J
1K
1L
1?
0M
1F
1G
1H
1I
1+
1*
1)
1(
1@
0L
1A
0K
1B
0J
1C
1'
1N
0,
#6250000
1"
0!
b111 &
b11 &
b1 &
b0 &
b111 %
b11 %
b1 %
b0 %
14
0=
0<
0:
07
05
0;
09
08
06
0B
1J
0A
1K
0@
1L
0?
1M
0>
0N
0F
0G
0H
0I
0+
0*
0)
0(
1,
0J
0K
0L
0M
0C
0'
1N
0,
#6406250
b1000 %
b1100 %
b1110 %
b1111 %
1<
1:
17
15
1J
1K
1L
1M
#6562500
b1000 &
b1100 &
b1110 &
b1111 &
b111 %
b11 %
b1 %
b0 %
0<
0:
07
05
1;
19
18
16
#6718750
b1000 %
b1100 %
b1110 %
b1111 %
1<
1:
17
15
1B
0J
1A
0K
1@
0L
1?
0M
1F
1G
1H
1I
1+
1*
1)
1(
1J
1K
1L
1C
1'
0N
1,
#6875000
1!
b111 &
b11 &
b1 &
b0 &
b111 %
b11 %
b1 %
b0 %
1=
0<
0:
07
05
0;
09
08
06
0B
0A
0@
0?
1>
0F
0G
0H
0I
0+
0*
0)
0(
0J
0K
0L
1M
0C
0'
1N
0,
#7031250
b1000 %
b1100 %
b1110 %
b1111 %
1<
1:
17
15
1J
1K
1L
1?
0M
1@
0L
1A
0K
1B
0J
1C
1'
0N
1,
#7187500
b1000 &
b1100 &
b1110 &
b1111 &
b111 %
b11 %
b1 %
b0 %
0<
0:
07
05
1;
19
18
16
#7343750
b1000 %
b1100 %
b1110 %
b1111 %
1<
1:
17
15
1J
1K
1L
1M
1F
1G
1H
1I
1+
1*
1)
1(
#7500000
1#
0"
0!
b111 &
b11 &
b1 &
b0 &
b111 %
b11 %
b1 %
b0 %
1E
04
0=
0<
0:
07
05
0;
09
08
06
0J
0K
0L
0M
0>
1N
0F
0G
0H
0I
0+
0*
0)
0(
0,
0?
1M
0@
1L
0A
1K
0B
1J
0C
0'
0N
1,
#7656250
b1000 %
b1100 %
b1110 %
b1111 %
1<
1:
17
15
1B
0J
1A
0K
1@
0L
1?
0M
1F
1G
1H
1I
1+
1*
1)
1(
1J
1K
1L
1C
1'
1N
0,
#7812500
b1000 &
b1100 &
b1110 &
b1111 &
b111 %
b11 %
b1 %
b0 %
0<
0:
07
05
1;
19
18
16
0B
0A
0@
0?
0J
0K
0L
0C
0'
0N
1,
#7968750
b1000 %
b1100 %
b1110 %
b1111 %
1<
1:
17
15
1J
1K
1L
1M
#8125000
1!
b111 &
b11 &
b1 &
b0 &
b111 %
b11 %
b1 %
b0 %
1=
0<
0:
07
05
0;
09
08
06
1>
0F
0G
0H
0I
0+
0*
0)
0(
1?
0M
1@
0L
1A
0K
1B
0J
1C
1'
1N
0,
#8281250
b1000 %
b1100 %
b1110 %
b1111 %
1<
1:
17
15
1J
1K
1L
1M
1F
1G
1H
1I
1+
1*
1)
1(
#8437500
b1000 &
b1100 &
b1110 &
b1111 &
b111 %
b11 %
b1 %
b0 %
0<
0:
07
05
1;
19
18
16
0B
0A
0@
0?
0J
0K
0L
0C
0'
0N
1,
#8593750
b1000 %
b1100 %
b1110 %
b1111 %
1<
1:
17
15
1J
1K
1L
1?
0M
1@
0L
1A
0K
1B
0J
1C
1'
1N
0,
#8750000
1"
0!
b111 &
b11 &
b1 &
b0 &
b111 %
b11 %
b1 %
b0 %
14
0=
0<
0:
07
05
0;
09
08
06
0B
1J
0A
1K
0@
1L
0?
1M
0>
0N
0F
0G
0H
0I
0+
0*
0)
0(
1,
0J
0K
0L
0M
0C
0'
1N
0,
#8906250
b1000 %
b1100 %
b1110 %
b1111 %
1<
1:
17
15
1J
1K
1L
1M
1F
1G
1H
1I
1+
1*
1)
1(
#9062500
b1000 &
b1100 &
b1110 &
b1111 &
b111 %
b11 %
b1 %
b0 %
0<
0:
07
05
1;
19
18
16
#9218750
b1000 %
b1100 %
b1110 %
b1111 %
1<
1:
17
15
1B
0J
1A
0K
1@
0L
1?
0M
1J
1K
1L
1C
1'
0N
1,
#9375000
1!
b111 &
b11 &
b1 &
b0 &
b111 %
b11 %
b1 %
b0 %
1=
0<
0:
07
05
0;
09
08
06
0B
0A
0@
0?
1>
0F
0G
0H
0I
0+
0*
0)
0(
0J
0K
0L
1M
0C
0'
1N
0,
#9531250
b1000 %
b1100 %
b1110 %
b1111 %
1<
1:
17
15
1J
1K
1L
1?
0M
1F
1G
1H
1I
1+
1*
1)
1(
1@
0L
1A
0K
1B
0J
1C
1'
0N
1,
#9687500
b1000 &
b1100 &
b1110 &
b1111 &
b111 %
b11 %
b1 %
b0 %
0<
0:
07
05
1;
19
18
16
#9843750
b1000 %
b1100 %
b1110 %
b1111 %
1<
1:
17
15
1J
1K
1L
1M
